{
    "fields": [
      {
        "id": "netapp_instance",
        "type": "string",
        "label": "Netapp_Instance"
      },
      {
        "id": "netapp_username",
        "type": "string",
        "label": "Username"
      },
      {
        "id": "netapp_password",
        "type": "string",
        "label": "Password",
        "secret": true
      }
    ],
    "required": [
      "netapp_instance",
      "netapp_username",
      "netapp_password"
    ]
  }