{
    "fields": [
      {
        "id": "oneview_instance",
        "type": "string",
        "label": "Instance"
      },
      {
        "id": "oneview_username",
        "type": "string",
        "label": "Username"
      },
      {
        "id": "oneview_password",
        "type": "string",
        "label": "Password",
        "secret": true
      }
    ],
    "required": [
      "instance",
      "username",
      "password"
    ]
  }